{
    "socketURL": "/",
    "dirPath": "",
    "socketMessageEvent": "RTCMultiConnection-Message",
    "socketCustomEvent": "RTCMultiConnection-Custom-Message",
    "port": "5000",
    "enableLogs": "true",
    "autoRebootServerOnFailure": "false",
    "isUseHTTPs": "true",
    "enableAdmin": "true",
    "adminUserName": "u",
    "adminPassword": "p"
  }
  